{
	"compiler": {
		"version": "0.6.12+commit.27d51765"
	},
	"language": "Solidity",
	"output": {
		"abi": [
			{
				"inputs": [],
				"stateMutability": "nonpayable",
				"type": "constructor"
			},
			{
				"anonymous": false,
				"inputs": [
					{
						"indexed": false,
						"internalType": "address",
						"name": "owner",
						"type": "address"
					},
					{
						"indexed": false,
						"internalType": "string",
						"name": "descripcion",
						"type": "string"
					}
				],
				"name": "EstadoCasaModificado",
				"type": "event"
			},
			{
				"anonymous": false,
				"inputs": [
					{
						"indexed": false,
						"internalType": "uint256",
						"name": "id",
						"type": "uint256"
					},
					{
						"indexed": false,
						"internalType": "address",
						"name": "owner",
						"type": "address"
					},
					{
						"indexed": false,
						"internalType": "string",
						"name": "titulo",
						"type": "string"
					},
					{
						"indexed": false,
						"internalType": "uint256",
						"name": "precio",
						"type": "uint256"
					},
					{
						"indexed": false,
						"internalType": "bool",
						"name": "disponibilidad",
						"type": "bool"
					}
				],
				"name": "ViviendaCreada",
				"type": "event"
			},
			{
				"anonymous": false,
				"inputs": [
					{
						"indexed": false,
						"internalType": "uint256",
						"name": "id",
						"type": "uint256"
					},
					{
						"indexed": false,
						"internalType": "string",
						"name": "name",
						"type": "string"
					},
					{
						"indexed": false,
						"internalType": "uint256",
						"name": "price",
						"type": "uint256"
					},
					{
						"indexed": false,
						"internalType": "address payable",
						"name": "owner",
						"type": "address"
					},
					{
						"indexed": false,
						"internalType": "address",
						"name": "guest",
						"type": "address"
					}
				],
				"name": "ViviendaRerservada",
				"type": "event"
			},
			{
				"inputs": [
					{
						"internalType": "string",
						"name": "titulo",
						"type": "string"
					},
					{
						"internalType": "string",
						"name": "descripcion",
						"type": "string"
					},
					{
						"internalType": "string",
						"name": "direccion",
						"type": "string"
					},
					{
						"internalType": "uint256",
						"name": "precio",
						"type": "uint256"
					}
				],
				"name": "addVivienda",
				"outputs": [],
				"stateMutability": "nonpayable",
				"type": "function"
			},
			{
				"inputs": [
					{
						"internalType": "uint256",
						"name": "",
						"type": "uint256"
					}
				],
				"name": "allReservas",
				"outputs": [
					{
						"internalType": "uint256",
						"name": "startDate",
						"type": "uint256"
					},
					{
						"internalType": "uint256",
						"name": "endDate",
						"type": "uint256"
					},
					{
						"internalType": "uint256",
						"name": "total",
						"type": "uint256"
					}
				],
				"stateMutability": "view",
				"type": "function"
			},
			{
				"inputs": [
					{
						"internalType": "uint256",
						"name": "",
						"type": "uint256"
					}
				],
				"name": "allViviendas",
				"outputs": [
					{
						"internalType": "uint256",
						"name": "id",
						"type": "uint256"
					},
					{
						"internalType": "address payable",
						"name": "owner",
						"type": "address"
					},
					{
						"internalType": "address",
						"name": "guest",
						"type": "address"
					},
					{
						"internalType": "string",
						"name": "titulo",
						"type": "string"
					},
					{
						"internalType": "string",
						"name": "descripcion",
						"type": "string"
					},
					{
						"internalType": "string",
						"name": "direccion",
						"type": "string"
					},
					{
						"internalType": "uint256",
						"name": "precio",
						"type": "uint256"
					},
					{
						"internalType": "bool",
						"name": "disponible",
						"type": "bool"
					}
				],
				"stateMutability": "view",
				"type": "function"
			},
			{
				"inputs": [
					{
						"internalType": "uint256",
						"name": "_id",
						"type": "uint256"
					},
					{
						"internalType": "uint256",
						"name": "_inicio",
						"type": "uint256"
					},
					{
						"internalType": "uint256",
						"name": "_fin",
						"type": "uint256"
					}
				],
				"name": "alquilar",
				"outputs": [],
				"stateMutability": "payable",
				"type": "function"
			},
			{
				"inputs": [],
				"name": "nR",
				"outputs": [
					{
						"internalType": "uint256",
						"name": "",
						"type": "uint256"
					}
				],
				"stateMutability": "view",
				"type": "function"
			},
			{
				"inputs": [],
				"name": "nV",
				"outputs": [
					{
						"internalType": "uint256",
						"name": "",
						"type": "uint256"
					}
				],
				"stateMutability": "view",
				"type": "function"
			},
			{
				"inputs": [],
				"name": "name",
				"outputs": [
					{
						"internalType": "string",
						"name": "",
						"type": "string"
					}
				],
				"stateMutability": "view",
				"type": "function"
			},
			{
				"inputs": [
					{
						"internalType": "uint256",
						"name": "_id",
						"type": "uint256"
					}
				],
				"name": "pausarAlquiler",
				"outputs": [],
				"stateMutability": "nonpayable",
				"type": "function"
			},
			{
				"inputs": [
					{
						"internalType": "uint256",
						"name": "_id",
						"type": "uint256"
					}
				],
				"name": "reanudarAlquiler",
				"outputs": [],
				"stateMutability": "nonpayable",
				"type": "function"
			},
			{
				"inputs": [
					{
						"internalType": "uint256",
						"name": "",
						"type": "uint256"
					}
				],
				"name": "reservaUser",
				"outputs": [
					{
						"internalType": "address",
						"name": "",
						"type": "address"
					}
				],
				"stateMutability": "view",
				"type": "function"
			},
			{
				"inputs": [
					{
						"internalType": "uint256",
						"name": "",
						"type": "uint256"
					}
				],
				"name": "reservaVivienda",
				"outputs": [
					{
						"internalType": "uint256",
						"name": "",
						"type": "uint256"
					}
				],
				"stateMutability": "view",
				"type": "function"
			},
			{
				"inputs": [
					{
						"internalType": "address",
						"name": "",
						"type": "address"
					},
					{
						"internalType": "uint256",
						"name": "",
						"type": "uint256"
					}
				],
				"name": "userReservas",
				"outputs": [
					{
						"internalType": "uint256",
						"name": "",
						"type": "uint256"
					}
				],
				"stateMutability": "view",
				"type": "function"
			},
			{
				"inputs": [
					{
						"internalType": "address",
						"name": "",
						"type": "address"
					},
					{
						"internalType": "uint256",
						"name": "",
						"type": "uint256"
					}
				],
				"name": "userViviendas",
				"outputs": [
					{
						"internalType": "uint256",
						"name": "",
						"type": "uint256"
					}
				],
				"stateMutability": "view",
				"type": "function"
			},
			{
				"inputs": [
					{
						"internalType": "uint256",
						"name": "",
						"type": "uint256"
					},
					{
						"internalType": "uint256",
						"name": "",
						"type": "uint256"
					}
				],
				"name": "viviendaReservas",
				"outputs": [
					{
						"internalType": "uint256",
						"name": "",
						"type": "uint256"
					}
				],
				"stateMutability": "view",
				"type": "function"
			},
			{
				"inputs": [
					{
						"internalType": "uint256",
						"name": "",
						"type": "uint256"
					}
				],
				"name": "viviendaUser",
				"outputs": [
					{
						"internalType": "address",
						"name": "",
						"type": "address"
					}
				],
				"stateMutability": "view",
				"type": "function"
			}
		],
		"devdoc": {
			"kind": "dev",
			"methods": {},
			"version": 1
		},
		"userdoc": {
			"kind": "user",
			"methods": {},
			"version": 1
		}
	},
	"settings": {
		"compilationTarget": {
			"Aplicacion.sol": "Aplicacion"
		},
		"evmVersion": "istanbul",
		"libraries": {},
		"metadata": {
			"bytecodeHash": "ipfs"
		},
		"optimizer": {
			"enabled": false,
			"runs": 200
		},
		"remappings": []
	},
	"sources": {
		"Aplicacion.sol": {
			"keccak256": "0x270353e8703b96de9eef3048b405f2af7ebeaab833a7af15b83ff36fd9419cd8",
			"license": "UNLICENSED",
			"urls": [
				"bzz-raw://c6bfbaf9c653590c259fbb89dd5d48be451bbff788e5cdf7a522c95643782a78",
				"dweb:/ipfs/QmctSSNiqTjQ9MiUcEDkThf9QATzRVzN4heEuq7nLGMbJn"
			]
		}
	},
	"version": 1
}